{
  "images" : [
    {
      "idiom" : "universal",
      "scale" : "1x"
    },
    {
      "idiom" : "universal",
      "scale" : "2x"
    },
    {
      "idiom" : "universal",
      "scale" : "3x"
    },
    {
      "idiom" : "iphone",
      "filename" : "certificates_certificate-larg_Page 1@2x-1.png",
      "scale" : "1x"
    },
    {
      "idiom" : "iphone",
      "filename" : "certificates_certificate-larg_Page 1@2x.png",
      "scale" : "2x"
    },
    {
      "idiom" : "iphone",
      "filename" : "certificates_certificate-larg_Page 1@3x-2.png",
      "scale" : "3x"
    },
    {
      "idiom" : "ipad",
      "filename" : "certificates_certificate-larg_Page 1@3x-1.png",
      "scale" : "1x"
    },
    {
      "idiom" : "ipad",
      "filename" : "certificates_certificate-larg_Page 1@3x.png",
      "scale" : "2x"
    }
  ],
  "info" : {
    "version" : 1,
    "author" : "xcode"
  }
}